…
Write your narrative here

\`4. (2 points)

``` r
seattlepets %>% 
  select(animal_name) %>%
  count(animal_name , sort = TRUE)
```

    ## # A tibble: 13,930 × 2
    ##    animal_name     n
    ##    <chr>       <int>
    ##  1 <NA>          483
    ##  2 Lucy          439
    ##  3 Charlie       387
    ##  4 Luna          355
    ##  5 Bella         331
    ##  6 Max           270
    ##  7 Daisy         261
    ##  8 Molly         240
    ##  9 Jack          232
    ## 10 Lily          232
    ## # ℹ 13,920 more rows
…
Write your narrative here

\`6. (2 points)

``` r
seattlepets %>%
  filter(species == "Goat") %>%
  select(animal_name , primary_breed) %>%
  arrange(animal_name)
```

    ## # A tibble: 38 × 2
    ##    animal_name     primary_breed
    ##    <chr>           <chr>        
    ##  1 Abelard         Miniature    
    ##  2 Aggie           Miniature    
    ##  3 Arya            Miniature    
    ##  4 Beans           Miniature    
    ##  5 Brussels Sprout Miniature    
    ##  6 Darcy           Miniature    
    ##  7 Fawn            Miniature    
    ##  8 Fiona           Miniature    
    ##  9 Gavin           Standard     
    ## 10 Grace           Miniature    
    ## # ℹ 28 more rows

Write your narrative here

\`7. (2 points)

``` r
seattlepets %>%
  mutate(pet = animal_name , species) %>%
  select(license_number , pet) %>%
  arrange(pet)
```

    ## # A tibble: 52,519 × 2
    ##    license_number pet                               
    ##    <chr>          <chr>                             
    ##  1 8001665        "\"Luci\" Lucia Rosalin Wicksugal"
    ##  2 896557         "\"Mama\" Maya"                   
    ##  3 S147119        "\"Mo\""                          
    ##  4 353597         "'Alani"                          
    ##  5 S143106        "'Murca"                          
    ##  6 573722         "-"                               
    ##  7 S126229        "1"                               
    ##  8 S126230        "2"                               
    ##  9 133239         "30 Weight"                       
    ## 10 S142492        "7's"                             
    ## # ℹ 52,509 more rows
…
\`9. (2 points)

``` r
top_10_names <- seattlepets %>% 
filter(animal_name %in% c( "Lucy"  , "Charlie" , "Luna" , "Bella" , "Max"    , 
                           "Daisy" , "Molly"   , "Jack" , "Lily"  , "Stella" ))
top_10_names
```

    ## # A tibble: 2,974 × 7
    ##    license_issue_date license_number animal_name species primary_breed          
    ##    <date>             <chr>          <chr>       <chr>   <chr>                  
    ##  1 2018-11-25         S120480        Charlie     Dog     Retriever, Labrador    
    ##  2 2018-11-03         829563         Max         Dog     Retriever, Labrador    
    ##  3 2018-10-29         732106         Lily        Cat     Domestic Shorthair     
    ##  4 2018-11-25         895808         Max         Cat     Domestic Shorthair     
    ##  5 2018-11-26         834841         Daisy       Dog     Terrier, American Pit …
    ##  6 2018-12-13         8003804        Charlie     Dog     Border Collie          
    ##  7 2018-11-06         S125292        Jack        Cat     Domestic Shorthair     
    ##  8 2018-11-01         835179         Stella      Dog     Retriever, Labrador    
    ##  9 2018-12-14         950094         Molly       Dog     Retriever, Labrador    
    ## 10 2018-11-24         S137301        Lucy        Dog     Hound                  
    ## # ℹ 2,964 more rows
    ## # ℹ 2 more variables: secondary_breed <chr>, zip_code <chr>
…
